{

	"Source Domain":{
		"Radius of Source Domain1": 6381200,
		"Globe": true,   
		"Nphi"      : 360,
		"Ntheta"    : 180,
		"Nr"        : 1,
		"dphi"      : 1,
		"Thetas"    : [1],
		"rdepths": [9e4,    1e5],
		"Data": "Lighting_bunch.bin"
	}
}
