
{
	"Solve Equation":true, 
	"Save Solution":true, 

	"Recalculate Fields":true, 

	"Output directory": "RES_4", 
	"Input  directory": "", 

	"Computational Parameters":
	{
		"N" : 100000,
		"N_RC" : 100000,
		"Use optimal conductivity" : true,
		"Use only lateral components": false,


		"Ngauss_IE_phi"   : 8,
		"Ngauss_IE_theta" : 8,

		"Ngauss_RC_phi"   : 16,
		"Ngauss_RC_theta" : 16,

		"High lattitudes" : 12,

         "Step pow": 8, 
         "Q accuracy": 7.5e-4,

		"T1":5,
		"T2":5
	},
	"Model Radius":6371201,

	"Anomaly":{
		"Radius of Anomaly":6371200,
		"Globe": true,   
		"Nphi"      : 360,
		"Ntheta"    : 180,
		"Nr"        : 1,
		"dphi"      : 1,
		"Thetas2"    : [89, 90, 91],
		"Thetas1"   : [0, 1],
		"Thetas"    : [1],
		"rdepths": [0,   1000],
		"Conductivity": "NS_hemosphere_1x1.bin" 
	}
	,
	"Receivers":{
		"Radius of Receivers Domain": 6371201,
		"Thetas2": [ 89.5],
		"Depths": [0]
	},

	"Sources":[
		{ "Period":86400,
			"Source Type" : "SHS",
			"Source Data" : "shs_1_0.shs",
			"Output suffix": "NS_24_h"
		}
	],

	"FGMRES":{
		"OuterBufferSize": 100,
		"InnerBufferSize": 100,
		"MaxRestart":300,
		"Tolerance":1e-7
	},

	"Background": {
		"Conductivity": [
			1e-12,
			1e-4,
			0.01,
			0.1,
			2
		],
		"Thickness": [
			 1, 10000,  300000, 250000
		]
	}
}
